Pour Copper Report
------------------

Report File:        Z:\Drive\4th Year Project\Electrical\PCB\Working Copy\ARCCS_V1 (PCB - Pour Copper Report).txt
Report Written:     Tuesday, February 09, 2016
Design Path:        Z:\Drive\4th Year Project\Electrical\PCB\Working Copy\ARCCS_V1.pcb
Design Title:       
Created:            2/2/2016 7:59:51 PM
Last Saved:         2/9/2016 1:09:23 PM
Editing Time:       5604 min
Units:              mil (precision 0)


End Of Report.
